module github.com/quadrosh/dinacleango

go 1.16

require (
	github.com/alexedwards/scs/v2 v2.4.0
	github.com/asaskevich/govalidator v0.0.0-20210307081110-f21760c49a8d
	github.com/go-chi/chi/v5 v5.0.3
	github.com/go-sql-driver/mysql v1.6.0
	github.com/justinas/nosurf v1.1.1
	github.com/xhit/go-simple-mail/v2 v2.10.0
	golang.org/x/crypto v0.0.0-20211202192323-5770296d904e
)
